{
  "type": "service_account",
  "project_id": "martyball-e1d53",
  "private_key_id": "131545cadf51da7d65d73f9ec56354aa03e15b41",
  "private_key": "-----BEGIN PRIVATE KEY-----\nMIIEvAIBADANBgkqhkiG9w0BAQEFAASCBKYwggSiAgEAAoIBAQC0C15qw+OoLhQc\nsehcu6mopiyVJe4JtsmvrxgCWUnn920hDbr1nL/Hr6UctjJMOTFzqi1e5UPEmIae\nY5e9NtXItlXt/qSQRjPiJ/fkIBOVvWWmekcIa4ynWsjEF11YKsaD6EOU9cjXNh5K\ndOK0Hxfj9qwV1QUsbOZ5inbVpTMuTFwUkxjvmnwJ7F8oh8tCQUmRwq7hDlZD80/e\nCgZZEC13kbN9+nne3Nz2VXkXYMtI6JkW63Mp27B5Hee615xzvaO8+hQcBZxXqKPf\nekaheCIWcqEu2G+q4/SZpJlBaHsG4EJp+DysHGC1tAwuLbbjTVxljCjbH49YC9zp\nQQXz3ErhAgMBAAECggEAA93go7tcRs7iiLE7c85l+OTEvVlIsPW3hCnnApnnT++M\n7PJOCxtYNRItIh45m1B5IupLOigDWhQKhBlQd3RXiA1+b/ORljWjxJ4mIUSdFxCv\nv7ENmH0y0p9NA4Ua8JtOkyOoW+khbJnRcbjr64FlcnRoQrnF+CvIkWCrZ7A6Fqrs\n8IQwfaX4VnDoqkuvB6RryDMqf7EJanaD/qpHDydYJ3l6+hxs5owtQfdWv4/aE8CP\nZwdPYxXgwM3Me9Nb6nA3435feIbqB5N66bcmRu0bxpXOs3b/EYnMtPrPfpJ+rvvm\nmMClRP0nBYphdgP2AJGUeYnh9eDrruVth0zrwAnGoQKBgQDYdkx3LtmAxHegxjfd\nKsh++FTUNspFh4cg8FP8yZALfgUnqyfjESdCW9rs81W9YU3Bqp9+o5ECWgLwgntm\nb+WR+b9o7dO2NbcZ6PEZOSVV20pKHACBC2ETWqkb3G7VP++eQIfmgTXZbmBnLb95\n+YqVJ9V5nuthjmoNOTgnM8T6uQKBgQDU7jCfawDTLq0EXyghJDZq/3mMqc4BANKu\nk8+7ouN5xCRWD3+OtvXAxdcWNTZ/vpC4CDj2ueXyS2JksOLZ7aFDYMhz6AJTiW7b\nrwtoJFHxTMj7Q6SilvybFFPjuY14w9Upi4U/xYPa6Ns85IabZVXSllEDIGW7DYuL\nWWBv/b6daQKBgG/jllr06JDa/Uspqq6z8rdO/epD+AJAr+Si1YcRWVfXaCq9Gf0R\nXM28VUmt7l/Z8CtvWspHGimxBVv01nx40p3GDt7aMFk7Is5NznJPS7E5jQkJuGj7\nzM4ISumP4+pvBhkzGgxYNdGScFplF1ihWLUIxhv7vYfL6Z20OgZpiCRhAoGALS1w\ncZKRdT01BnVuHUICrccQshChHcNf8Bx6edRAsWg1UXEuXkhhcgpH7XVS39299N4B\nwA+HQ1ZNRRHmv9hUW+hf/3+dZr4FIGVOZUU3gZwKFI2wk7K3W+v/NJT8+D+Mrajl\nl7c/l6XKRmwyRyxD/k9YVvJ7wylHj0RiWsCavekCgYB/AL5TeEk1qQmxwkrtMX1b\nObcEuPTfPjrQ45l+T8SyT71IuqmKeIZL/G4No1CqVIcfqFRJmnRlYTZWFUpynpx6\nLAAtcMaDQPBgREadsxrQ/w87cwgjwHsHrntGc13jzSii2g+mzts/s5J5OuYnL9Lx\n2BxswKVQCLwlauLBQuj7ug==\n-----END PRIVATE KEY-----\n",
  "client_email": "firebase-adminsdk-cvk41@martyball-e1d53.iam.gserviceaccount.com",
  "client_id": "113887214405853191805",
  "auth_uri": "https://accounts.google.com/o/oauth2/auth",
  "token_uri": "https://oauth2.googleapis.com/token",
  "auth_provider_x509_cert_url": "https://www.googleapis.com/oauth2/v1/certs",
  "client_x509_cert_url": "https://www.googleapis.com/robot/v1/metadata/x509/firebase-adminsdk-cvk41%40martyball-e1d53.iam.gserviceaccount.com"
}
